{
  "project_info": {
    "project_number": "724660871859",
    "firebase_url": "https://pocketmoneyedited.firebaseio.com",
    "project_id": "pocketmoneyedited",
    "storage_bucket": "pocketmoneyedited.appspot.com"
  },
  "client": [
    {
      "client_info": {
        "mobilesdk_app_id": "1:724660871859:android:3f0a1f7a2ec56aec",
        "android_client_info": {
          "package_name": "xyz.cruxlab.pocketmoney_edited"
        }
      },
      "oauth_client": [
        {
          "client_id": "724660871859-mia81m6ghp310clpvg60knoufh81pflr.apps.googleusercontent.com",
          "client_type": 1,
          "android_info": {
            "package_name": "xyz.cruxlab.pocketmoney_edited",
            "certificate_hash": "7c037656b7d0db2fc5d74ca6a6667691d35e02d3"
          }
        },
        {
          "client_id": "724660871859-ofakugtd4eufi6q9hibblrk1629qpnvn.apps.googleusercontent.com",
          "client_type": 3
        }
      ],
      "api_key": [
        {
          "current_key": "AIzaSyCSxLBeJUSUkYce8N4GhucAFZCGHOy1qcA"
        }
      ],
      "services": {
        "analytics_service": {
          "status": 1
        },
        "appinvite_service": {
          "status": 2,
          "other_platform_oauth_client": [
            {
              "client_id": "724660871859-ofakugtd4eufi6q9hibblrk1629qpnvn.apps.googleusercontent.com",
              "client_type": 3
            }
          ]
        },
        "ads_service": {
          "status": 2
        }
      }
    }
  ],
  "configuration_version": "1"
}